---
http_interactions:
- request:
    method: get
    uri: https://api.flickr.com/services/rest?api_key=<FLICKR_API_KEY>&format=json&is_getty=true&method=flickr.photos.search&nojsoncallback=1&safe_search=1&sort=interestingness-desc&tags=snow,%20denver,co
    body:
      encoding: US-ASCII
      string: ''
    headers:
      User-Agent:
      - Faraday v0.15.4
      Accept-Encoding:
      - gzip;q=1.0,deflate;q=0.6,identity;q=0.3
      Accept:
      - "*/*"
  response:
    status:
      code: 200
      message: OK
    headers:
      Content-Type:
      - application/json
      Transfer-Encoding:
      - chunked
      Connection:
      - keep-alive
      Date:
      - Wed, 31 Jul 2019 04:43:47 GMT
      Server:
      - Apache/2.4.39 (Ubuntu)
      X-Content-Type-Options:
      - nosniff
      X-Frame-Options:
      - SAMEORIGIN
      X-Cache:
      - Miss from cloudfront
      Via:
      - 1.1 5ca4a9702235f89c8172c7a83807a48d.cloudfront.net (CloudFront)
      X-Amz-Cf-Pop:
      - DEN50-C1
      X-Amz-Cf-Id:
      - 8CEw2BoW7WPb3ZTrN5aUKqs1ZlBRLL6k1ZL860nXct83J4fFJ9t9rQ==
    body:
      encoding: UTF-8
      string: '{"photos":{"page":1,"pages":100,"perpage":100,"total":"9992","photo":[{"id":"7612736864","owner":"33198406@N07","secret":"896fba0b08","server":"8148","farm":9,"title":"Denver
        Skyline Sunset","ispublic":1,"isfriend":0,"isfamily":0},{"id":"5416468718","owner":"21207178@N07","secret":"7d0d4db6dc","server":"5258","farm":6,"title":"Please
        take a Seat under the Old Tree","ispublic":1,"isfriend":0,"isfamily":0},{"id":"5269214208","owner":"21207178@N07","secret":"eb506f503a","server":"5129","farm":6,"title":"Rocky
        Mountain Winter Reflection in Spring - Boulder, USA","ispublic":1,"isfriend":0,"isfamily":0},{"id":"11418009444","owner":"39278031@N00","secret":"b7eb12c939","server":"5494","farm":6,"title":"Lake
        Isabelle Sunrise - Indian Peaks Wilderness, Colorado","ispublic":1,"isfriend":0,"isfamily":0},{"id":"11136423265","owner":"21207178@N07","secret":"c4eaf165cd","server":"3744","farm":4,"title":"Red
        Rocks","ispublic":1,"isfriend":0,"isfamily":0},{"id":"9999030126","owner":"14018394@N03","secret":"eb186ac2a4","server":"3802","farm":4,"title":"2JO_1228
        Panorama","ispublic":1,"isfriend":0,"isfamily":0},{"id":"8540865174","owner":"39836272@N07","secret":"1508283598","server":"8245","farm":9,"title":"Climbing
        into a snowy Tunnel 1","ispublic":1,"isfriend":0,"isfamily":0},{"id":"8353865517","owner":"21207178@N07","secret":"93566398c0","server":"8362","farm":9,"title":"Creativity
        of Nature at cold Temperature","ispublic":1,"isfriend":0,"isfamily":0},{"id":"8165873805","owner":"39836272@N07","secret":"0edda26a13","server":"7128","farm":8,"title":"Crescent
        coal","ispublic":1,"isfriend":0,"isfamily":0},{"id":"8114874194","owner":"39836272@N07","secret":"673029ff11","server":"8056","farm":9,"title":"Racing
        south","ispublic":1,"isfriend":0,"isfamily":0},{"id":"8101566741","owner":"39836272@N07","secret":"caa0d3ffbe","server":"8190","farm":9,"title":"Gathering","ispublic":1,"isfriend":0,"isfamily":0},{"id":"7496569018","owner":"39836272@N07","secret":"cf2475b7ed","server":"7251","farm":8,"title":"Snow-covered
        Crescent","ispublic":1,"isfriend":0,"isfamily":0},{"id":"6723972995","owner":"14079030@N03","secret":"2c9e7c4b61","server":"7170","farm":8,"title":"Denver
        Night Skyline with Moon","ispublic":1,"isfriend":0,"isfamily":0},{"id":"6188243411","owner":"39278031@N00","secret":"e935ff91d0","server":"6174","farm":7,"title":"Sunflower
        Field - Hudson, Colorado","ispublic":1,"isfriend":0,"isfamily":0},{"id":"5859292722","owner":"39278031@N00","secret":"8a9e60a479","server":"5229","farm":6,"title":"Moraine
        Park Sunrise -  Rocky Mountain National Park, Colorado","ispublic":1,"isfriend":0,"isfamily":0},{"id":"5856256462","owner":"39278031@N00","secret":"e53e001c48","server":"5113","farm":6,"title":"Tree
        @ Fossil Creek Reservoir - Fort Collins, Colorado","ispublic":1,"isfriend":0,"isfamily":0},{"id":"5706273894","owner":"39278031@N00","secret":"920c112d6e","server":"2206","farm":3,"title":"Lake
        Brainard - Indian Peaks Wilderness, Colorado","ispublic":1,"isfriend":0,"isfamily":0},{"id":"5605019121","owner":"39278031@N00","secret":"6b9fa3f22c","server":"5267","farm":6,"title":"Winter
        Red Rock Lake - Indian Peaks Wilderness, Colorado","ispublic":1,"isfriend":0,"isfamily":0},{"id":"5534407980","owner":"39278031@N00","secret":"97f5e741ba","server":"5014","farm":6,"title":"Fall
        Maroon Bells Lake - Aspen, Colorado","ispublic":1,"isfriend":0,"isfamily":0},{"id":"5410089960","owner":"39278031@N00","secret":"979a598435","server":"4140","farm":5,"title":"Frozen
        Dream Lake - Rocky Mountain National Park, Colorado","ispublic":1,"isfriend":0,"isfamily":0},{"id":"5229658073","owner":"34068123@N07","secret":"c3da498916","server":"5010","farm":6,"title":"In
        the quiet aftermath","ispublic":1,"isfriend":0,"isfamily":0},{"id":"4767394968","owner":"39278031@N00","secret":"1f00dfa974","server":"4135","farm":5,"title":"Lake
        Brainard - Indian Peaks Wilderness, Colorado","ispublic":1,"isfriend":0,"isfamily":0},{"id":"3865763356","owner":"39278031@N00","secret":"c8822344de","server":"2534","farm":3,"title":"Beautiful
        Sunrise at Lake Isabelle in Ward Colorado","ispublic":1,"isfriend":0,"isfamily":0},{"id":"3713404646","owner":"39278031@N00","secret":"1198c67758","server":"2423","farm":3,"title":"Summer
        Tranquility","ispublic":1,"isfriend":0,"isfamily":0},{"id":"3491022933","owner":"21207178@N07","secret":"5053087d2b","server":"3352","farm":4,"title":"Do
        you have some Nuts? Denver Downtown, Colorado, USA","ispublic":1,"isfriend":0,"isfamily":0},{"id":"3474919575","owner":"21207178@N07","secret":"e47bceaa7b","server":"3623","farm":4,"title":"Golden
        Seat of the Government, Denver Downtown - Colorado, USA","ispublic":1,"isfriend":0,"isfamily":0},{"id":"2911759035","owner":"39278031@N00","secret":"0b177bae61","server":"3015","farm":4,"title":"Piney
        Reflection","ispublic":1,"isfriend":0,"isfamily":0},{"id":"2342517294","owner":"39278031@N00","secret":"a33e4bb07b","server":"2311","farm":3,"title":"Speed
        of Light","ispublic":1,"isfriend":0,"isfamily":0},{"id":"1086023510","owner":"99491151@N00","secret":"e768864a23","server":"1289","farm":2,"title":"Colorado
        State Capitol (Denver, Colorado)","ispublic":1,"isfriend":0,"isfamily":0},{"id":"13196842205","owner":"97023816@N00","secret":"554562a340","server":"2534","farm":3,"title":"the
        Battery and St. John''s city skyline","ispublic":1,"isfriend":0,"isfamily":0},{"id":"13171542025","owner":"97023816@N00","secret":"47757fed98","server":"3684","farm":4,"title":"Signal
        hill light trail, St. John''s","ispublic":1,"isfriend":0,"isfamily":0},{"id":"13143168684","owner":"70399361@N06","secret":"2730360f14","server":"7440","farm":8,"title":"One
        more step...","ispublic":1,"isfriend":0,"isfamily":0},{"id":"13131259545","owner":"97023816@N00","secret":"1ce811eb31","server":"2248","farm":3,"title":"city
        of snow, St. John''s, Newfoundland","ispublic":1,"isfriend":0,"isfamily":0},{"id":"13110296014","owner":"62691288@N00","secret":"9b16d4191a","server":"2566","farm":3,"title":"Watership
        down..","ispublic":1,"isfriend":0,"isfamily":0},{"id":"13008255283","owner":"25852365@N04","secret":"f09317474e","server":"7302","farm":8,"title":"fresh
        as, bro","ispublic":1,"isfriend":0,"isfamily":0},{"id":"12993092604","owner":"88420718@N03","secret":"3416294ab4","server":"7335","farm":8,"title":"miniature
        world","ispublic":1,"isfriend":0,"isfamily":0},{"id":"12874728793","owner":"65990237@N03","secret":"855e8abaac","server":"7324","farm":8,"title":"Fairy
        Pools, Glenbrittle, Isle of Skye, Scotland (Getty Images)","ispublic":1,"isfriend":0,"isfamily":0},{"id":"12843630204","owner":"39792237@N02","secret":"646c9116f5","server":"7391","farm":8,"title":"Sunbeams
        in the snow","ispublic":1,"isfriend":0,"isfamily":0},{"id":"12832868065","owner":"70231077@N06","secret":"ea7e080004","server":"3701","farm":4,"title":"Saas-Fee
        Village Centre at Night (Explored)","ispublic":1,"isfriend":0,"isfamily":0},{"id":"12792800713","owner":"42311074@N03","secret":"37c1ea1a4d","server":"2826","farm":3,"title":"Antarctica","ispublic":1,"isfriend":0,"isfamily":0},{"id":"12792593233","owner":"70231077@N06","secret":"5250718d98","server":"7394","farm":8,"title":"Swiss
        Alps (Explored)","ispublic":1,"isfriend":0,"isfamily":0},{"id":"12783428524","owner":"30003795@N04","secret":"0eb3d5694f","server":"7428","farm":8,"title":"\u96ea\u6a13\u9280\u6cb3","ispublic":1,"isfriend":0,"isfamily":0},{"id":"12770859284","owner":"30003795@N04","secret":"623b7ea43f","server":"2823","farm":3,"title":"\u6696\u967d","ispublic":1,"isfriend":0,"isfamily":0},{"id":"12759668705","owner":"11470687@N05","secret":"c85630fb32","server":"5510","farm":6,"title":"snow
        trails","ispublic":1,"isfriend":0,"isfamily":0},{"id":"12738590145","owner":"61301419@N00","secret":"3d8231947b","server":"7371","farm":8,"title":"\u9280\u6cb3\u677e\u96ea\u3002\u5408\u6b61\u77f3\u9580\u5c71
        Mt.Hehuan, Taiwan _IMG_1968","ispublic":1,"isfriend":0,"isfamily":0},{"id":"12704046595","owner":"23594595@N02","secret":"21a3a2e5a2","server":"3773","farm":4,"title":"Val
        Gardena","ispublic":1,"isfriend":0,"isfamily":0},{"id":"12695767745","owner":"25138781@N05","secret":"9c1a90f82e","server":"5541","farm":6,"title":"Star
        trails at White Mt. Hehuan \u5408\u6b61\u5c71","ispublic":1,"isfriend":0,"isfamily":0},{"id":"12696105154","owner":"25138781@N05","secret":"261cb8a793","server":"7299","farm":8,"title":"Sunset
        at Mt. Hehuan \u5408\u6b61\u5c71","ispublic":1,"isfriend":0,"isfamily":0},{"id":"12686231155","owner":"28283328@N04","secret":"4809f5cc09","server":"3760","farm":4,"title":"The
        Approach","ispublic":1,"isfriend":0,"isfamily":0},{"id":"12683242654","owner":"42311074@N03","secret":"dd0ddb259d","server":"5485","farm":6,"title":"Antarctica","ispublic":1,"isfriend":0,"isfamily":0},{"id":"12660745284","owner":"39137917@N02","secret":"d6ca72ce73","server":"7321","farm":8,"title":"European
        Robin @ trunk","ispublic":1,"isfriend":0,"isfamily":0},{"id":"12656088063","owner":"77585122@N00","secret":"7c5887c75c","server":"3812","farm":4,"title":"Good
        Morning!","ispublic":1,"isfriend":0,"isfamily":0},{"id":"12653144014","owner":"23893265@N08","secret":"b6b3cfdc84","server":"7345","farm":8,"title":"Mitsubishi
        EK Custom. \u00a9 Glenn E Waters.Japan.   My new car. Over 3,000 visits to
        this image.","ispublic":1,"isfriend":0,"isfamily":0},{"id":"12641658614","owner":"22578558@N04","secret":"1def43c5af","server":"3730","farm":4,"title":"PURPLE
        NIGHT","ispublic":1,"isfriend":0,"isfamily":0},{"id":"12632931273","owner":"11470687@N05","secret":"a764bf4cf0","server":"5507","farm":6,"title":"winter
        sunset at Hehuanshan","ispublic":1,"isfriend":0,"isfamily":0},{"id":"12631689605","owner":"8945641@N02","secret":"f06a0573f0","server":"3750","farm":4,"title":"Crossing
        the bridge","ispublic":1,"isfriend":0,"isfamily":0},{"id":"12610462483","owner":"83177778@N02","secret":"6bb2f8fa5b","server":"5509","farm":6,"title":"White
        world","ispublic":1,"isfriend":0,"isfamily":0},{"id":"12606550523","owner":"39871759@N02","secret":"e705167c08","server":"2894","farm":3,"title":"bison","ispublic":1,"isfriend":0,"isfamily":0},{"id":"12577280984","owner":"33726922@N05","secret":"6582cddbd5","server":"5491","farm":6,"title":"Snow
        Geese Flyover","ispublic":1,"isfriend":0,"isfamily":0},{"id":"12572018385","owner":"54932558@N00","secret":"effc23ea36","server":"3680","farm":4,"title":"Yosemite
        Valley","ispublic":1,"isfriend":0,"isfamily":0},{"id":"12561876415","owner":"22284286@N07","secret":"cdd09898e7","server":"3774","farm":4,"title":"Matterhorn
        in a full moon night - Zermatt","ispublic":1,"isfriend":0,"isfamily":0},{"id":"12554038525","owner":"39871759@N02","secret":"fdbfbb8095","server":"3696","farm":4,"title":"coyote
        Ugly?","ispublic":1,"isfriend":0,"isfamily":0},{"id":"8712671090","owner":"39836272@N07","secret":"15cc99f56a","server":"8262","farm":9,"title":"No.
        5 leaving Crescent","ispublic":1,"isfriend":0,"isfamily":0},{"id":"8496664530","owner":"35557234@N07","secret":"468f1c258f","server":"8236","farm":9,"title":"Sleddin
        in the Backcountry","ispublic":1,"isfriend":0,"isfamily":0},{"id":"8478584873","owner":"39836272@N07","secret":"fe8a2b2af1","server":"8112","farm":9,"title":"Early
        snow","ispublic":1,"isfriend":0,"isfamily":0},{"id":"4240077136","owner":"34068123@N07","secret":"1244403eca","server":"4010","farm":5,"title":"Majestic
        Frost","ispublic":1,"isfriend":0,"isfamily":0},{"id":"4235655994","owner":"34068123@N07","secret":"a4fd20a2a5","server":"4063","farm":5,"title":"Iced
        dawn","ispublic":1,"isfriend":0,"isfamily":0},{"id":"4119401367","owner":"7461879@N03","secret":"ebe849b714","server":"2683","farm":3,"title":"Poe
        Tongue","ispublic":1,"isfriend":0,"isfamily":0},{"id":"13013670983","owner":"33882696@N04","secret":"88f32d5acf","server":"7442","farm":8,"title":"step
        by step [EXPLORE]","ispublic":1,"isfriend":0,"isfamily":0},{"id":"12999001655","owner":"8945641@N02","secret":"d4964e753c","server":"2486","farm":3,"title":"Village
        houses  \u694a\u5bb6\u5802","ispublic":1,"isfriend":0,"isfamily":0},{"id":"12939432703","owner":"47573058@N03","secret":"a4e989c72f","server":"2825","farm":3,"title":"Crisp
        Fresh","ispublic":1,"isfriend":0,"isfamily":0},{"id":"12926284965","owner":"22578558@N04","secret":"b51c43bb4f","server":"7430","farm":8,"title":"BLUE
        NOTES","ispublic":1,"isfriend":0,"isfamily":0},{"id":"12918944573","owner":"56705746@N02","secret":"828c829d95","server":"2860","farm":3,"title":"Summit
        hidden [Explored]","ispublic":1,"isfriend":0,"isfamily":0},{"id":"12915444014","owner":"15778088@N00","secret":"0ba8389a68","server":"7406","farm":8,"title":"scenes
        from glacier, part two","ispublic":1,"isfriend":0,"isfamily":0},{"id":"12911287235","owner":"31714338@N07","secret":"da52b5a738","server":"3680","farm":4,"title":"Pinch
        Road","ispublic":1,"isfriend":0,"isfamily":0},{"id":"12784594953","owner":"15778088@N00","secret":"9205ba0be1","server":"7396","farm":8,"title":"the
        hushed voice of winter","ispublic":1,"isfriend":0,"isfamily":0},{"id":"12768836865","owner":"25138781@N05","secret":"ddc67b4309","server":"7419","farm":8,"title":"Uncanny
        workmanship\u5408\u6b61\u5c71","ispublic":1,"isfriend":0,"isfamily":0},{"id":"12751269685","owner":"65546314@N05","secret":"0887612312","server":"3792","farm":4,"title":"Girl
        walking under the snow","ispublic":1,"isfriend":0,"isfamily":0},{"id":"12744968975","owner":"25138781@N05","secret":"6eb07d2958","server":"5519","farm":6,"title":"Snow
        World \u5408\u6b61\u5c71","ispublic":1,"isfriend":0,"isfamily":0},{"id":"12743080434","owner":"8945641@N02","secret":"e2b8b339e1","server":"7402","farm":8,"title":"Snowy
        Terraces sunrise  \u96f2\u548c\u68af\u7530","ispublic":1,"isfriend":0,"isfamily":0},{"id":"12733737005","owner":"8945641@N02","secret":"a5bf085583","server":"3813","farm":4,"title":"Snowy
        Terraces \u96f2\u548c\u68af\u7530","ispublic":1,"isfriend":0,"isfamily":0},{"id":"12718689324","owner":"28992076@N08","secret":"f24017b8e6","server":"5475","farm":6,"title":"Chamonix,
        France","ispublic":1,"isfriend":0,"isfamily":0},{"id":"12698610793","owner":"14980862@N03","secret":"3902d9ba05","server":"5503","farm":6,"title":"Big
        Beehive","ispublic":1,"isfriend":0,"isfamily":0},{"id":"12691414974","owner":"59490769@N04","secret":"feaa8d2abc","server":"7339","farm":8,"title":"Alps","ispublic":1,"isfriend":0,"isfamily":0},{"id":"12678442413","owner":"54886276@N00","secret":"2f5b4bd81e","server":"3678","farm":4,"title":"Roan
        Moonlight","ispublic":1,"isfriend":0,"isfamily":0},{"id":"12650586343","owner":"39739612@N02","secret":"d62310bdd7","server":"7455","farm":8,"title":"Caught
        in a snow trap","ispublic":1,"isfriend":0,"isfamily":0},{"id":"12643228284","owner":"27955898@N07","secret":"3eda7e5c95","server":"5481","farm":6,"title":"Snowy
        Easter 2012","ispublic":1,"isfriend":0,"isfamily":0},{"id":"12642539143","owner":"78098088@N07","secret":"fcb6a6b61e","server":"7431","farm":8,"title":"Himmelreich
        Kleinwalsertal","ispublic":1,"isfriend":0,"isfamily":0},{"id":"12638239545","owner":"50397417@N06","secret":"6fb6d9ae81","server":"3755","farm":4,"title":"06enihsnuS","ispublic":1,"isfriend":0,"isfamily":0},{"id":"12634156183","owner":"25138781@N05","secret":"539a8eb5cf","server":"2867","farm":3,"title":"Snow
        Covered Mt. Hehuan \u5408\u6b61\u5c71","ispublic":1,"isfriend":0,"isfamily":0},{"id":"12633407885","owner":"25138781@N05","secret":"24cb449404","server":"5506","farm":6,"title":"Snow
        Covered Mt. Hehuan \u5408\u6b61\u5c71","ispublic":1,"isfriend":0,"isfamily":0},{"id":"12632962974","owner":"25138781@N05","secret":"2856433c92","server":"2871","farm":3,"title":"Snow
        Covered Mt. Hehuan \u5408\u6b61\u5c71","ispublic":1,"isfriend":0,"isfamily":0},{"id":"12628348914","owner":"8945641@N02","secret":"ae1f34055e","server":"7368","farm":8,"title":"Moo
        moo","ispublic":1,"isfriend":0,"isfamily":0},{"id":"12624269663","owner":"25138781@N05","secret":"98de2d2311","server":"2842","farm":3,"title":"Snow
        Covered Mt. Hehuan","ispublic":1,"isfriend":0,"isfamily":0},{"id":"12613494254","owner":"25138781@N05","secret":"b60f024c13","server":"7452","farm":8,"title":"Snow
        Covered Mt. Hehuan \u5408\u6b61\u5c71","ispublic":1,"isfriend":0,"isfamily":0},{"id":"12607915403","owner":"59490769@N04","secret":"e7909cff97","server":"5502","farm":6,"title":"Cielo
        nuvoloso","ispublic":1,"isfriend":0,"isfamily":0},{"id":"12589447673","owner":"29762217@N00","secret":"97bfaa8c4c","server":"3676","farm":4,"title":"Snowplow","ispublic":1,"isfriend":0,"isfamily":0},{"id":"12584299654","owner":"59490769@N04","secret":"0535bf681e","server":"7299","farm":8,"title":"Uno
        sguardo oltre","ispublic":1,"isfriend":0,"isfamily":0},{"id":"12560803265","owner":"60085976@N04","secret":"7c67e1b5a0","server":"5472","farm":6,"title":"\u6d45\u8349\u5bfa\u306e\u96ea\u5316\u7ca7","ispublic":1,"isfriend":0,"isfamily":0},{"id":"12557880404","owner":"59490769@N04","secret":"ff35c04c5a","server":"5494","farm":6,"title":"Nuovo
        giorno","ispublic":1,"isfriend":0,"isfamily":0}]},"stat":"ok"}'
    http_version: 
  recorded_at: Wed, 31 Jul 2019 04:43:47 GMT
recorded_with: VCR 5.0.0
